%!PS-Adobe-2.0 EPSF-2.0
%%Title: Hevea11.eps
%%Creator: fig2dev Version 3.2 Patchlevel 3c
%%CreationDate: Mon Mar 26 00:02:28 2001
%%For: root@localhost (root)
%%BoundingBox: 0 0 242 148
%%Magnification: 1.0000
%%EndComments
/$F2psDict 200 dict def
$F2psDict begin
$F2psDict /mtrx matrix put
/col-1 {0 setgray} bind def
/col0 {0.000 0.000 0.000 srgb} bind def
/col1 {0.000 0.000 1.000 srgb} bind def
/col2 {0.000 1.000 0.000 srgb} bind def
/col3 {0.000 1.000 1.000 srgb} bind def
/col4 {1.000 0.000 0.000 srgb} bind def
/col5 {1.000 0.000 1.000 srgb} bind def
/col6 {1.000 1.000 0.000 srgb} bind def
/col7 {1.000 1.000 1.000 srgb} bind def
/col8 {0.000 0.000 0.560 srgb} bind def
/col9 {0.000 0.000 0.690 srgb} bind def
/col10 {0.000 0.000 0.820 srgb} bind def
/col11 {0.530 0.810 1.000 srgb} bind def
/col12 {0.000 0.560 0.000 srgb} bind def
/col13 {0.000 0.690 0.000 srgb} bind def
/col14 {0.000 0.820 0.000 srgb} bind def
/col15 {0.000 0.560 0.560 srgb} bind def
/col16 {0.000 0.690 0.690 srgb} bind def
/col17 {0.000 0.820 0.820 srgb} bind def
/col18 {0.560 0.000 0.000 srgb} bind def
/col19 {0.690 0.000 0.000 srgb} bind def
/col20 {0.820 0.000 0.000 srgb} bind def
/col21 {0.560 0.000 0.560 srgb} bind def
/col22 {0.690 0.000 0.690 srgb} bind def
/col23 {0.820 0.000 0.820 srgb} bind def
/col24 {0.500 0.190 0.000 srgb} bind def
/col25 {0.630 0.250 0.000 srgb} bind def
/col26 {0.750 0.380 0.000 srgb} bind def
/col27 {1.000 0.500 0.500 srgb} bind def
/col28 {1.000 0.630 0.630 srgb} bind def
/col29 {1.000 0.750 0.750 srgb} bind def
/col30 {1.000 0.880 0.880 srgb} bind def
/col31 {1.000 0.840 0.000 srgb} bind def

end
save
newpath 0 148 moveto 0 0 lineto 242 0 lineto 242 148 lineto closepath clip newpath
-48.0 164.0 translate
1 -1 scale

/cp {closepath} bind def
/ef {eofill} bind def
/gr {grestore} bind def
/gs {gsave} bind def
/sa {save} bind def
/rs {restore} bind def
/l {lineto} bind def
/m {moveto} bind def
/rm {rmoveto} bind def
/n {newpath} bind def
/s {stroke} bind def
/sh {show} bind def
/slc {setlinecap} bind def
/slj {setlinejoin} bind def
/slw {setlinewidth} bind def
/srgb {setrgbcolor} bind def
/rot {rotate} bind def
/sc {scale} bind def
/sd {setdash} bind def
/ff {findfont} bind def
/sf {setfont} bind def
/scf {scalefont} bind def
/sw {stringwidth} bind def
/tr {translate} bind def
/tnt {dup dup currentrgbcolor
  4 -2 roll dup 1 exch sub 3 -1 roll mul add
  4 -2 roll dup 1 exch sub 3 -1 roll mul add
  4 -2 roll dup 1 exch sub 3 -1 roll mul add srgb}
  bind def
/shd {dup dup currentrgbcolor 4 -2 roll mul 4 -2 roll mul
  4 -2 roll mul srgb} bind def
/$F2psBegin {$F2psDict begin /$F2psEnteredState save def} def
/$F2psEnd {$F2psEnteredState restore end} def

$F2psBegin
%%Page: 1 1
10 setmiterlimit
 0.06000 0.06000 sc
%
% Fig objects follow
%
% Polyline
15.000 slw
n 3600 300 m 4800 300 l 4800 900 l 3600 900 l
 cp gs col0 s gr 
% Polyline
n 3600 1200 m 4800 1200 l 4800 1800 l 3600 1800 l
 cp gs col0 s gr 
% Polyline
n 3600 2100 m 4800 2100 l 4800 2700 l 3600 2700 l
 cp gs col0 s gr 
% Polyline
gs  clippath
3642 644 m 3583 540 l 3333 681 l 3572 616 l 3392 785 l cp
eoclip
n 2400 1275 m
 3600 600 l gs col0 s gr gr

% arrowhead
n 3392 785 m 3572 616 l 3333 681 l 3392 785 l  cp gs -0.00 setgray ef gr  col0 s
% Polyline
gs  clippath
3615 1560 m 3615 1440 l 3328 1440 l 3568 1500 l 3328 1560 l cp
eoclip
n 2400 1500 m
 3600 1500 l gs col0 s gr gr

% arrowhead
n 3328 1560 m 3568 1500 l 3328 1440 l 3328 1560 l  cp gs -0.00 setgray ef gr  col0 s
% Polyline
gs  clippath
3580 2458 m 3644 2357 l 3401 2204 l 3573 2383 l 3337 2306 l cp
eoclip
n 2400 1650 m
 3600 2400 l gs col0 s gr gr

% arrowhead
n 3337 2306 m 3573 2383 l 3401 2204 l 3337 2306 l  cp gs -0.00 setgray ef gr  col0 s
% Polyline
n 825 1125 m 2400 1125 l 2400 1912 l 825 1912 l
 cp gs col0 s gr 
/Times-Roman ff 180.00 scf sf
3750 675 m
gs 1 -1 sc (fichier.html) col0 sh gr
/Times-Roman ff 180.00 scf sf
3825 1575 m
gs 1 -1 sc (fichier.txt) col0 sh gr
/Times-Roman ff 180.00 scf sf
3750 2475 m
gs 1 -1 sc (fichier.info) col0 sh gr
/Times-Roman ff 180.00 scf sf
975 1575 m
gs 1 -1 sc (Hevea fichier.tex) col0 sh gr
$F2psEnd
rs
