%!PS-Adobe-2.0 EPSF-2.0
%%Title: Hevea21.eps
%%Creator: fig2dev Version 3.2 Patchlevel 3c
%%CreationDate: Tue Mar 27 23:05:34 2001
%%For: root@localhost (root)
%%BoundingBox: 0 0 386 332
%%Magnification: 1.0000
%%EndComments
/$F2psDict 200 dict def
$F2psDict begin
$F2psDict /mtrx matrix put
/col-1 {0 setgray} bind def
/col0 {0.000 0.000 0.000 srgb} bind def
/col1 {0.000 0.000 1.000 srgb} bind def
/col2 {0.000 1.000 0.000 srgb} bind def
/col3 {0.000 1.000 1.000 srgb} bind def
/col4 {1.000 0.000 0.000 srgb} bind def
/col5 {1.000 0.000 1.000 srgb} bind def
/col6 {1.000 1.000 0.000 srgb} bind def
/col7 {1.000 1.000 1.000 srgb} bind def
/col8 {0.000 0.000 0.560 srgb} bind def
/col9 {0.000 0.000 0.690 srgb} bind def
/col10 {0.000 0.000 0.820 srgb} bind def
/col11 {0.530 0.810 1.000 srgb} bind def
/col12 {0.000 0.560 0.000 srgb} bind def
/col13 {0.000 0.690 0.000 srgb} bind def
/col14 {0.000 0.820 0.000 srgb} bind def
/col15 {0.000 0.560 0.560 srgb} bind def
/col16 {0.000 0.690 0.690 srgb} bind def
/col17 {0.000 0.820 0.820 srgb} bind def
/col18 {0.560 0.000 0.000 srgb} bind def
/col19 {0.690 0.000 0.000 srgb} bind def
/col20 {0.820 0.000 0.000 srgb} bind def
/col21 {0.560 0.000 0.560 srgb} bind def
/col22 {0.690 0.000 0.690 srgb} bind def
/col23 {0.820 0.000 0.820 srgb} bind def
/col24 {0.500 0.190 0.000 srgb} bind def
/col25 {0.630 0.250 0.000 srgb} bind def
/col26 {0.750 0.380 0.000 srgb} bind def
/col27 {1.000 0.500 0.500 srgb} bind def
/col28 {1.000 0.630 0.630 srgb} bind def
/col29 {1.000 0.750 0.750 srgb} bind def
/col30 {1.000 0.880 0.880 srgb} bind def
/col31 {1.000 0.840 0.000 srgb} bind def

end
save
newpath 0 332 moveto 0 0 lineto 386 0 lineto 386 332 lineto closepath clip newpath
-70.0 348.0 translate
1 -1 scale

/cp {closepath} bind def
/ef {eofill} bind def
/gr {grestore} bind def
/gs {gsave} bind def
/sa {save} bind def
/rs {restore} bind def
/l {lineto} bind def
/m {moveto} bind def
/rm {rmoveto} bind def
/n {newpath} bind def
/s {stroke} bind def
/sh {show} bind def
/slc {setlinecap} bind def
/slj {setlinejoin} bind def
/slw {setlinewidth} bind def
/srgb {setrgbcolor} bind def
/rot {rotate} bind def
/sc {scale} bind def
/sd {setdash} bind def
/ff {findfont} bind def
/sf {setfont} bind def
/scf {scalefont} bind def
/sw {stringwidth} bind def
/tr {translate} bind def
/tnt {dup dup currentrgbcolor
  4 -2 roll dup 1 exch sub 3 -1 roll mul add
  4 -2 roll dup 1 exch sub 3 -1 roll mul add
  4 -2 roll dup 1 exch sub 3 -1 roll mul add srgb}
  bind def
/shd {dup dup currentrgbcolor 4 -2 roll mul 4 -2 roll mul
  4 -2 roll mul srgb} bind def
/$F2psBegin {$F2psDict begin /$F2psEnteredState save def} def
/$F2psEnd {$F2psEnteredState restore end} def

$F2psBegin
%%Page: 1 1
10 setmiterlimit
 0.06000 0.06000 sc
%
% Fig objects follow
%
% Polyline
15.000 slw
n 4800 1500 m 6000 1500 l 6000 2100 l 4800 2100 l
 cp gs col0 s gr 
% Polyline
n 3750 3000 m 4800 3000 l 4800 4275 l 3750 4275 l
 cp gs col0 s gr 
% Polyline
n 1200 2400 m 2400 2400 l 2400 3000 l 1200 3000 l
 cp gs col0 s gr 
% Polyline
n 1200 3150 m 2400 3150 l 2400 3750 l 1200 3750 l
 cp gs col0 s gr 
% Polyline
n 1200 3900 m 2400 3900 l 2400 4500 l 1200 4500 l
 cp gs col0 s gr 
% Polyline
n 6000 2400 m 7200 2400 l 7200 3000 l 6000 3000 l
 cp gs col0 s gr 
% Polyline
n 6000 3150 m 7200 3150 l 7200 3750 l 6000 3750 l
 cp gs col0 s gr 
% Polyline
n 6000 3900 m 7200 3900 l 7200 4500 l 6000 4500 l
 cp gs col0 s gr 
% Polyline
n 6000 5175 m 7200 5175 l 7200 5775 l 6000 5775 l
 cp gs col0 s gr 
% Polyline
n 1200 5175 m 2400 5175 l 2400 5775 l 1200 5775 l
 cp gs col0 s gr 
% Polyline
gs  clippath
4815 1860 m 4815 1740 l 4528 1740 l 4768 1800 l 4528 1860 l cp
eoclip
n 3075 1800 m
 4800 1800 l gs col0 s gr gr

% arrowhead
n 4528 1860 m 4768 1800 l 4528 1740 l 4528 1860 l  cp gs -0.00 setgray ef gr  col0 s
% Polyline
7.500 slw
 [60] 0 sd
gs  clippath
2445 1515 m 2505 1515 l 2505 1364 l 2475 1484 l 2445 1364 l cp
eoclip
n 2475 900 m
 2475 1500 l gs col0 s gr gr
 [] 0 sd
% arrowhead
n 2445 1364 m 2475 1484 l 2505 1364 l 2445 1364 l  cp gs -0.00 setgray ef gr  col0 s
% Polyline
15.000 slw
n 6000 1800 m
 7575 1800 l gs col0 s gr 
% Polyline
n 7575 1800 m
 7575 5475 l gs col0 s gr 
% Polyline
gs  clippath
7185 2640 m 7185 2760 l 7472 2760 l 7232 2700 l 7472 2640 l cp
eoclip
n 7200 2700 m
 7575 2700 l gs col0 s gr gr

% arrowhead
n 7472 2640 m 7232 2700 l 7472 2760 l 7472 2640 l  cp gs -0.00 setgray ef gr  col0 s
% Polyline
gs  clippath
7185 3390 m 7185 3510 l 7472 3510 l 7232 3450 l 7472 3390 l cp
eoclip
n 7200 3450 m
 7575 3450 l gs col0 s gr gr

% arrowhead
n 7472 3390 m 7232 3450 l 7472 3510 l 7472 3390 l  cp gs -0.00 setgray ef gr  col0 s
% Polyline
gs  clippath
7185 4140 m 7185 4260 l 7472 4260 l 7232 4200 l 7472 4140 l cp
eoclip
n 7200 4200 m
 7575 4200 l gs col0 s gr gr

% arrowhead
n 7472 4140 m 7232 4200 l 7472 4260 l 7472 4140 l  cp gs -0.00 setgray ef gr  col0 s
% Polyline
gs  clippath
7185 5415 m 7185 5535 l 7472 5535 l 7232 5475 l 7472 5415 l cp
eoclip
n 7200 5475 m
 7575 5475 l gs col0 s gr gr

% arrowhead
n 7472 5415 m 7232 5475 l 7472 5535 l 7472 5415 l  cp gs -0.00 setgray ef gr  col0 s
% Polyline
 [90] 0 sd
n 6600 4500 m
 6600 5175 l gs col0 s gr  [] 0 sd
% Polyline
n 6593 5175 m 6608 5175 l gs col0 s gr
% Polyline
 [90] 0 sd
n 1725 4500 m
 1725 5175 l gs col0 s gr  [] 0 sd
% Polyline
gs  clippath
4762 3176 m 4810 3285 l 5073 3170 l 4830 3212 l 5025 3060 l cp
eoclip
n 6000 2700 m
 4800 3225 l gs col0 s gr gr

% arrowhead
n 5025 3060 m 4830 3212 l 5073 3170 l 5025 3060 l  cp gs -0.00 setgray ef gr  col0 s
% Polyline
gs  clippath
4785 3390 m 4785 3510 l 5072 3510 l 4832 3450 l 5072 3390 l cp
eoclip
n 6000 3450 m
 4800 3450 l gs col0 s gr gr

% arrowhead
n 5072 3390 m 4832 3450 l 5072 3510 l 5072 3390 l  cp gs -0.00 setgray ef gr  col0 s
% Polyline
gs  clippath
4810 3614 m 4762 3723 l 5025 3839 l 4830 3688 l 5073 3729 l cp
eoclip
n 6000 4200 m
 4800 3675 l gs col0 s gr gr

% arrowhead
n 5073 3729 m 4830 3688 l 5025 3839 l 5073 3729 l  cp gs -0.00 setgray ef gr  col0 s
% Polyline
gs  clippath
4836 3999 m 4744 4077 l 4929 4297 l 4821 4075 l 5021 4219 l cp
eoclip
n 6000 5475 m
 4800 4050 l gs col0 s gr gr

% arrowhead
n 5021 4219 m 4821 4075 l 4929 4297 l 5021 4219 l  cp gs -0.00 setgray ef gr  col0 s
% Polyline
gs  clippath
2404 2638 m 2366 2752 l 2639 2842 l 2431 2710 l 2677 2728 l cp
eoclip
n 3750 3150 m
 2400 2700 l gs col0 s gr gr

% arrowhead
n 2677 2728 m 2431 2710 l 2639 2842 l 2677 2728 l  cp gs -0.00 setgray ef gr  col0 s
% Polyline
gs  clippath
2385 3390 m 2385 3510 l 2672 3510 l 2432 3450 l 2672 3390 l cp
eoclip
n 3750 3450 m
 2400 3450 l gs col0 s gr gr

% arrowhead
n 2672 3390 m 2432 3450 l 2672 3510 l 2672 3390 l  cp gs -0.00 setgray ef gr  col0 s
% Polyline
gs  clippath
2372 4069 m 2398 4186 l 2679 4124 l 2432 4118 l 2653 4007 l cp
eoclip
n 3750 3825 m
 2400 4125 l gs col0 s gr gr

% arrowhead
n 2653 4007 m 2432 4118 l 2679 4124 l 2653 4007 l  cp gs -0.00 setgray ef gr  col0 s
% Polyline
gs  clippath
2346 5443 m 2431 5528 l 2635 5324 l 2423 5452 l 2550 5239 l cp
eoclip
n 3750 4125 m
 2400 5475 l gs col0 s gr gr

% arrowhead
n 2550 5239 m 2423 5452 l 2635 5324 l 2550 5239 l  cp gs -0.00 setgray ef gr  col0 s
% Polyline
30.000 slw
 [120 54 15 40 15 54] 0 sd
n 1725 2250 m 1725 1200 l 6750 1200 l 6750 2250 l 5775 2250 l 5775 2625 l
 2850 2625 l 2850 2325 l 2850 2250 l 1725 2250 l
 1725 1875 l gs col0 s gr  [] 0 sd
% Polyline
15.000 slw
n 1875 1500 m 3075 1500 l 3075 2100 l 1875 2100 l
 cp gs col0 s gr 
% Polyline
n 1875 300 m 3075 300 l 3075 900 l 1875 900 l
 cp gs col0 s gr 
% Polyline
n 3375 300 m 4275 300 l 4275 900 l 3375 900 l
 cp gs col0 s gr 
% Polyline
n 4575 300 m 5475 300 l 5475 900 l 4575 900 l
 cp gs col0 s gr 
% Polyline
n 5775 300 m 6675 300 l 6675 900 l 5775 900 l
 cp gs col0 s gr 
% Polyline
gs  clippath
6330 953 m 6298 838 l 6021 915 l 6269 909 l 6053 1031 l cp
eoclip
n 3075 1800 m
 6300 900 l gs col0 s gr gr

% arrowhead
n 6053 1031 m 6269 909 l 6021 915 l 6053 1031 l  cp gs -0.00 setgray ef gr  col0 s
% Polyline
gs  clippath
5063 948 m 5013 839 l 4752 960 l 4996 914 l 4803 1069 l cp
eoclip
n 3075 1800 m
 5025 900 l gs col0 s gr gr

% arrowhead
n 4803 1069 m 4996 914 l 4752 960 l 4803 1069 l  cp gs -0.00 setgray ef gr  col0 s
% Polyline
gs  clippath
3880 926 m 3788 850 l 3604 1070 l 3804 925 l 3696 1147 l cp
eoclip
n 3075 1800 m
 3825 900 l gs col0 s gr gr

% arrowhead
n 3696 1147 m 3804 925 l 3604 1070 l 3696 1147 l  cp gs -0.00 setgray ef gr  col0 s
/Times-Roman ff 180.00 scf sf
4245 3240 m
gs 1 -1 sc (Processeur) dup sw pop 2 div neg 0 rm  col0 sh gr
/Times-Roman ff 180.00 scf sf
4245 3780 m
gs 1 -1 sc (XSLT) dup sw pop 2 div neg 0 rm  col0 sh gr
/Times-Roman ff 180.00 scf sf
6570 2625 m
gs 1 -1 sc (feuille XSL) dup sw pop 2 div neg 0 rm  col0 sh gr
/Times-Roman ff 180.00 scf sf
6585 3360 m
gs 1 -1 sc (feuille XSL) dup sw pop 2 div neg 0 rm  col0 sh gr
/Times-Roman ff 180.00 scf sf
6630 4110 m
gs 1 -1 sc (feuille XSL) dup sw pop 2 div neg 0 rm  col0 sh gr
/Times-Roman ff 180.00 scf sf
6600 5400 m
gs 1 -1 sc (feuille XSL) dup sw pop 2 div neg 0 rm  col0 sh gr
/Times-Roman ff 180.00 scf sf
1725 3495 m
gs 1 -1 sc (fichier.txt) dup sw pop 2 div neg 0 rm  col0 sh gr
/Times-Roman ff 180.00 scf sf
6570 2880 m
gs 1 -1 sc (Html) dup sw pop 2 div neg 0 rm  col0 sh gr
/Times-Roman ff 180.00 scf sf
6540 3630 m
gs 1 -1 sc (Texte) dup sw pop 2 div neg 0 rm  col0 sh gr
/Times-Roman ff 180.00 scf sf
6510 4380 m
gs 1 -1 sc (Info) dup sw pop 2 div neg 0 rm  col0 sh gr
/Times-Roman ff 180.00 scf sf
6570 5655 m
gs 1 -1 sc (Doc Word) dup sw pop 2 div neg 0 rm  col0 sh gr
/Times-Roman ff 180.00 scf sf
1755 2760 m
gs 1 -1 sc (fichier.html) dup sw pop 2 div neg 0 rm  col0 sh gr
/Times-Roman ff 180.00 scf sf
1770 4260 m
gs 1 -1 sc (fichier.info) dup sw pop 2 div neg 0 rm  col0 sh gr
/Times-Roman ff 180.00 scf sf
1755 5565 m
gs 1 -1 sc (fichier.doc) dup sw pop 2 div neg 0 rm  col0 sh gr
/Times-Bold ff 270.00 scf sf
3375 2475 m
gs 1 -1 sc (SUJET PROJET) col0 sh gr
/Times-Roman ff 180.00 scf sf
2175 1725 m
gs 1 -1 sc (Hevea) col0 sh gr
/Times-Roman ff 180.00 scf sf
2100 1950 m
gs 1 -1 sc (fichier.tex) col0 sh gr
/Times-Roman ff 180.00 scf sf
2475 825 m
gs 1 -1 sc (fichier.xml) dup sw pop 2 div neg 0 rm  col0 sh gr
/Times-Roman ff 180.00 scf sf
2475 525 m
gs 1 -1 sc (DTD) dup sw pop 2 div neg 0 rm  col0 sh gr
/Times-Roman ff 180.00 scf sf
5400 1875 m
gs 1 -1 sc (fichier.xml) dup sw pop 2 div neg 0 rm  col0 sh gr
/Times-Roman ff 180.00 scf sf
3825 675 m
gs 1 -1 sc (fichier.html) dup sw pop 2 div neg 0 rm  col0 sh gr
/Times-Roman ff 180.00 scf sf
5025 675 m
gs 1 -1 sc (fichier.txt) dup sw pop 2 div neg 0 rm  col0 sh gr
/Times-Roman ff 180.00 scf sf
6225 675 m
gs 1 -1 sc (fichier.info) dup sw pop 2 div neg 0 rm  col0 sh gr
$F2psEnd
rs
