1. SUBSETS

             6
 2  384/1000~38.4%
 3  232/1000~23.2%
 4  184/1000~18.4%
 5  185/1000~18.5%
 6  186/1000~18.6%
 7  579/3000~19.3%
 8  896/4000~22.4%
 9  962/4000~24.0%
10 1054/4000~26.3%
11
12
13
14